﻿<?xml version="1.0" encoding="utf-8"?>
<svg version="1.1" xmlns:xlink="http://www.w3.org/1999/xlink" width="12px" height="16px" xmlns="http://www.w3.org/2000/svg">
  <g transform="matrix(1 0 0 1 -31 -244 )">
    <path d="M 11.34375 4.87272727272727  C 11.78125 5.21212121212121  12 5.62424242424242  12 6.10909090909091  L 12 9.89090909090909  C 12 10.1333333333333  11.890625 10.3393939393939  11.671875 10.5090909090909  C 11.453125 10.6787878787879  11.1875 10.7636363636364  10.875 10.7636363636364  C 10.5625 10.7636363636364  10.296875 10.6787878787879  10.078125 10.5090909090909  C 9.859375 10.3393939393939  9.75 10.1333333333333  9.75 9.89090909090909  L 9.75 6.69090909090909  L 9 6.69090909090909  L 9 14.9818181818182  C 9 15.2606060606061  8.87109375 15.5  8.61328125 15.7  C 8.35546875 15.9  8.046875 16  7.6875 16  C 7.328125 16  7.01953125 15.9  6.76171875 15.7  C 6.50390625 15.5  6.375 15.2606060606061  6.375 14.9818181818182  L 6.375 10.7636363636364  L 5.625 10.7636363636364  L 5.625 14.9818181818182  C 5.625 15.2606060606061  5.49609375 15.5  5.23828125 15.7  C 4.98046875 15.9  4.671875 16  4.3125 16  C 3.953125 16  3.64453125 15.9  3.38671875 15.7  C 3.12890625 15.5  3 15.2606060606061  3 14.9818181818182  L 3 6.69090909090909  L 2.25 6.69090909090909  L 2.25 9.89090909090909  C 2.25 10.1333333333333  2.140625 10.3393939393939  1.921875 10.5090909090909  C 1.703125 10.6787878787879  1.4375 10.7636363636364  1.125 10.7636363636364  C 0.8125 10.7636363636364  0.546875 10.6787878787879  0.328125 10.5090909090909  C 0.109375 10.3393939393939  0 10.1333333333333  0 9.89090909090909  L 0 6.10909090909091  C 0 5.62424242424242  0.21875 5.21212121212121  0.65625 4.87272727272727  C 1.09375 4.53333333333333  1.625 4.36363636363636  2.25 4.36363636363636  L 9.75 4.36363636363636  C 10.375 4.36363636363636  10.90625 4.53333333333333  11.34375 4.87272727272727  Z M 7.857421875 0.595454545454546  C 8.369140625 0.99242424242424  8.625 1.47272727272727  8.625 2.03636363636364  C 8.625 2.6  8.369140625 3.08030303030303  7.857421875 3.47727272727273  C 7.345703125 3.87424242424242  6.7265625 4.07272727272727  6 4.07272727272727  C 5.2734375 4.07272727272727  4.654296875 3.87424242424242  4.142578125 3.47727272727273  C 3.630859375 3.08030303030303  3.375 2.6  3.375 2.03636363636364  C 3.375 1.47272727272727  3.630859375 0.99242424242424  4.142578125 0.595454545454546  C 4.654296875 0.198484848484847  5.2734375 0  6 0  C 6.7265625 0  7.345703125 0.198484848484847  7.857421875 0.595454545454546  Z " fill-rule="nonzero" fill="#000000" stroke="none" transform="matrix(1 0 0 1 31 244 )" />
  </g>
</svg>